[
    {
        "customerId": "cust123",
        "firstName": "Jay",
        "lastName": "Somase",
        "consentId": "78294982422348",
        "accountNo": "SBI72878748"
    },

    {
        "customerId": "cust553",
        "firstName": "Vijay",
        "lastName": "Rana",
        "consentId": "35444565768686",
        "accountNo": "UBI345395794"
    },

    {
        "customerId": "cust123",
        "firstName": "Surya",
        "lastName": "Tripathi",
        "consentId": "8435u982422348",
        "accountNo": "HDFC4564880065667"
    }
]